{
	"id": "914b7c56-ee57-e10f-f13d-7a3e36c78b31",
	"name": "KlarioAdmin",
	"allTests": [],
	"timestamp": 1480496329383,
	"collection_id": "7ab6a5ee-a850-edee-07e5-e8bd6085bac7",
	"folder_id": 0,
	"target_type": "collection",
	"environment_id": "0",
	"data": [],
	"delay": 0,
	"count": 1,
	"collection": {
		"id": "7ab6a5ee-a850-edee-07e5-e8bd6085bac7",
		"name": "KlarioAdmin",
		"description": "",
		"order": [],
		"folders": [
			{
				"id": "c563cfd1-b32c-5d2b-9ac3-edabbfa83357",
				"name": "AdminUserLogin",
				"description": "",
				"write": true,
				"order": [
					"1812d95d-03ea-cabc-ff20-051c63a0488c",
					"f6dad9de-4791-061f-eebf-534b99db9381"
				],
				"collection": "7ab6a5ee-a850-edee-07e5-e8bd6085bac7",
				"owner": "116258",
				"collection_id": "7ab6a5ee-a850-edee-07e5-e8bd6085bac7"
			},
			{
				"id": "345dd482-04ef-1a11-e921-64dc2fe78e4b",
				"name": "AdminUserLogout",
				"description": "",
				"write": true,
				"order": [
					"0d05e794-6fa3-78d1-33e7-aeba6da32b5d",
					"e122a481-4aa5-831c-e895-24751e7adde2"
				],
				"collection": "7ab6a5ee-a850-edee-07e5-e8bd6085bac7",
				"owner": "116258",
				"collection_id": "7ab6a5ee-a850-edee-07e5-e8bd6085bac7"
			},
			{
				"id": "9c8c3d49-ee81-68b8-df6a-200af9c0181c",
				"name": "ApplianceRemove",
				"description": "",
				"write": true,
				"order": [
					"712d85ab-099a-4e3b-48f2-8c25664de98b",
					"4bcee710-387f-bf4d-07ce-52ecda8556d9"
				],
				"collection": "7ab6a5ee-a850-edee-07e5-e8bd6085bac7",
				"owner": "116258",
				"collection_id": "7ab6a5ee-a850-edee-07e5-e8bd6085bac7"
			},
			{
				"id": "448c18e1-03f8-b603-a7b0-25bfc0ba6477",
				"name": "ManufactureRegister",
				"description": "",
				"write": true,
				"order": [
					"73733c33-f69e-8c85-c187-f34fcc060d2c",
					"b7979f46-434e-35d4-230e-76cbd366e11c"
				],
				"collection": "7ab6a5ee-a850-edee-07e5-e8bd6085bac7",
				"owner": "116258",
				"collection_id": "7ab6a5ee-a850-edee-07e5-e8bd6085bac7"
			},
			{
				"id": "045c5c8a-73e2-4c10-0a33-b4549f8b401e",
				"name": "MonitorLog",
				"description": "",
				"write": true,
				"order": [
					"7eacfeab-9da6-e4be-bf35-70f5017774e6",
					"9f1f345a-2c31-7ae7-5a8a-f1982bb181f3"
				],
				"collection": "7ab6a5ee-a850-edee-07e5-e8bd6085bac7",
				"owner": "116258",
				"collection_id": "7ab6a5ee-a850-edee-07e5-e8bd6085bac7"
			},
			{
				"id": "2719edaa-b314-6304-f531-9cd0fd60ece1",
				"name": "NameUpdate",
				"description": "",
				"write": true,
				"order": [
					"b2c35986-8cf8-059f-851f-9df6daeaee3a",
					"eb768b7a-c3db-7137-c92c-ee36b21910dc"
				],
				"collection": "7ab6a5ee-a850-edee-07e5-e8bd6085bac7",
				"owner": "116258",
				"collection_id": "7ab6a5ee-a850-edee-07e5-e8bd6085bac7"
			},
			{
				"id": "6cc78131-cbf4-01e3-8fcc-f22e0a86ee33",
				"name": "OwnersRemove",
				"description": "",
				"write": true,
				"order": [
					"4d84c927-77c7-0d1c-2e5c-f5fba1ba67b7",
					"986ecb25-a3de-69cb-9895-02682cdcb2e9"
				],
				"collection": "7ab6a5ee-a850-edee-07e5-e8bd6085bac7",
				"owner": "116258",
				"collection_id": "7ab6a5ee-a850-edee-07e5-e8bd6085bac7"
			},
			{
				"id": "33dbfdc6-1eea-efe2-ffdc-a005f9d3bd81",
				"name": "RegisteredList",
				"description": "",
				"write": true,
				"order": [
					"ad3b6ba3-9052-c55b-e629-b5c08e0dcfa0",
					"83a2c2b7-ad79-faf3-1d56-c87d9e1fc941"
				],
				"collection": "7ab6a5ee-a850-edee-07e5-e8bd6085bac7",
				"owner": "116258",
				"collection_id": "7ab6a5ee-a850-edee-07e5-e8bd6085bac7"
			},
			{
				"id": "4236453a-e2a6-a95e-67d3-d299f6344dbf",
				"name": "ReverseSSH",
				"description": "",
				"write": true,
				"order": [
					"74529afd-27cf-f942-1fcf-af0f97685302"
				],
				"collection": "7ab6a5ee-a850-edee-07e5-e8bd6085bac7",
				"owner": "116258",
				"collection_id": "7ab6a5ee-a850-edee-07e5-e8bd6085bac7"
			},
			{
				"id": "352b6773-5b24-dfc9-b4fc-e61f5bf950d4",
				"name": "TransactionList",
				"description": "",
				"write": true,
				"order": [
					"cdc918bc-8376-9747-435f-8b380798e675",
					"31b0a91c-35e7-a7f1-eee9-132b2fde6cd2"
				],
				"collection": "7ab6a5ee-a850-edee-07e5-e8bd6085bac7",
				"owner": "116258",
				"collection_id": "7ab6a5ee-a850-edee-07e5-e8bd6085bac7"
			}
		],
		"requests": [
			{
				"id": "0d05e794-6fa3-78d1-33e7-aeba6da32b5d",
				"headers": "Content-Type: application/json\n",
				"url": "https://www.klario.in/admin/user/logout",
				"preRequestScript": null,
				"pathVariables": {},
				"method": "POST",
				"data": "{\n  \"userId\": \"214jo8142hkd\",\n  \"loginVerificationToken\": \"016wpc6wc0og\"\n}",
				"dataMode": "raw",
				"tests": "tests[\"Response time is less than 200ms\"] = responseTime < 200;\n\ntests[\"Status code is 200\"] = responseCode.code === 200;\n\ntests[\"Body matches Logout Successful\"] = responseBody.has(\"Logout Successful\");",
				"currentHelper": "normal",
				"helperAttributes": {},
				"time": 1479819166594,
				"name": "AdminUserLogout",
				"description": "",
				"collectionId": "7ab6a5ee-a850-edee-07e5-e8bd6085bac7",
				"responses": []
			},
			{
				"id": "1812d95d-03ea-cabc-ff20-051c63a0488c",
				"headers": "Content-Type: application/json\n",
				"url": "https://www.klario.in/admin/user/login",
				"preRequestScript": null,
				"pathVariables": {},
				"method": "POST",
				"data": "{\n  \"userName\": \"admin\",\n  \"password\": \"admin\"\n}",
				"dataMode": "raw",
				"tests": "tests[\"Response time is less than 300ms\"] = responseTime < 300;\n\ntests[\"Status code is 200\"] = responseCode.code === 200;\n\ntests[\"Body matches Login Successful\"] = responseBody.has(\"Login Successful\");",
				"currentHelper": "normal",
				"helperAttributes": {},
				"time": 1480496311600,
				"name": "AdminUserLogin",
				"description": "",
				"collectionId": "7ab6a5ee-a850-edee-07e5-e8bd6085bac7",
				"responses": []
			},
			{
				"id": "31b0a91c-35e7-a7f1-eee9-132b2fde6cd2",
				"headers": "Content-Type: application/json\n",
				"url": " https://www.klario.in/admin/appliance/transaction/list",
				"preRequestScript": null,
				"pathVariables": {},
				"method": "POST",
				"data": "{\n  \"deviceId\": \"$%$%\"\n}",
				"dataMode": "raw",
				"tests": "tests[\"Response time is less than 200ms\"] = responseTime < 200;\n\ntests[\"Status code is 200\"] = responseCode.code === 200;\n\ntests[\"Body matches []\"] = responseBody.has(\"[]\");",
				"currentHelper": "normal",
				"helperAttributes": {},
				"time": 1479818405790,
				"name": "TransactionListNegative",
				"description": "",
				"collectionId": "7ab6a5ee-a850-edee-07e5-e8bd6085bac7",
				"responses": []
			},
			{
				"id": "4bcee710-387f-bf4d-07ce-52ecda8556d9",
				"headers": "Content-Type: application/json\n",
				"url": "https://www.klario.in/admin/appliance/remove",
				"preRequestScript": null,
				"pathVariables": {},
				"method": "POST",
				"data": "{\n  \"deviceId\": \"))\"\n}",
				"dataMode": "raw",
				"tests": "tests[\"Status code is 200\"] = responseCode.code === 200;\n\ntests[\"Response time is less than 200ms\"] = responseTime < 200;\n\ntests[\"Body matches Device removal complete\"] = responseBody.has(\"Device removal complete\");",
				"currentHelper": "normal",
				"helperAttributes": {},
				"time": 1479818133081,
				"name": "ApplianceRemoveNegative",
				"description": "",
				"collectionId": "7ab6a5ee-a850-edee-07e5-e8bd6085bac7",
				"responses": []
			},
			{
				"id": "4d84c927-77c7-0d1c-2e5c-f5fba1ba67b7",
				"headers": "Content-Type: application/json\n",
				"url": "https://www.klario.in/admin/appliance/owners/remove",
				"preRequestScript": null,
				"pathVariables": {},
				"method": "POST",
				"data": "{\n  \"deviceId\": \"916wk822eqov\"\n}",
				"dataMode": "raw",
				"tests": "tests[\"Status code is 400\"] = responseCode.code === 400;\n\ntests[\"Response time is less than 200ms\"] = responseTime < 200;\n\ntests[\"Body matches InCorrectAction\"] = responseBody.has(\"InCorrectAction\");",
				"currentHelper": "normal",
				"helperAttributes": {},
				"time": 1480491039816,
				"name": "OwnersRemove",
				"description": "",
				"collectionId": "7ab6a5ee-a850-edee-07e5-e8bd6085bac7",
				"responses": []
			},
			{
				"id": "712d85ab-099a-4e3b-48f2-8c25664de98b",
				"headers": "Content-Type: application/json\n",
				"url": "https://www.klario.in/admin/appliance/remove",
				"preRequestScript": null,
				"pathVariables": {},
				"method": "POST",
				"data": "{\n  \"deviceId\": \"916wjt7ul28v\"\n}",
				"dataMode": "raw",
				"tests": "tests[\"Status code is 200\"] = responseCode.code === 200;\n\ntests[\"Response time is less than 200ms\"] = responseTime < 200;\n\ntests[\"Body matches Device removal complete\"] = responseBody.has(\"Device removal complete\");",
				"currentHelper": "normal",
				"helperAttributes": {},
				"time": 1479817717080,
				"name": "ApplianceRemove",
				"description": "",
				"collectionId": "7ab6a5ee-a850-edee-07e5-e8bd6085bac7",
				"responses": []
			},
			{
				"id": "73733c33-f69e-8c85-c187-f34fcc060d2c",
				"headers": "Content-Type: application/json\n",
				"url": "https://www.klario.in/admin/device/manufacture/register",
				"preRequestScript": null,
				"pathVariables": {},
				"method": "POST",
				"data": "{\n  \"deviceName\": \"abc1\",\n  \"macAddress\": \"21:e9:16:00:4c:bg\",\n  \"nfcId\": \"0123456789\",\n  \"serialId\": \"111111\",\n  \"sdCardId\": \"035344535530344780942d2a2b0102e2\"\n}",
				"dataMode": "raw",
				"tests": "tests[\"Response time is less than 200ms\"] = responseTime < 200;\n\ntests[\"Status code is 200\"] = responseCode.code === 200;\n\ntests[\"Body matches Appliance registered successfully\"] = responseBody.has(\"Appliance registered successfully\");",
				"currentHelper": "normal",
				"helperAttributes": {},
				"time": 1480492460451,
				"name": "ManufactureRegister",
				"description": "",
				"collectionId": "7ab6a5ee-a850-edee-07e5-e8bd6085bac7",
				"responses": []
			},
			{
				"id": "74529afd-27cf-f942-1fcf-af0f97685302",
				"headers": "Content-Type: application/json\n",
				"url": "https://www.klario.in/admin/appliance/reversessh/default",
				"preRequestScript": null,
				"pathVariables": {},
				"method": "POST",
				"data": "{}",
				"dataMode": "raw",
				"tests": "tests[\"Status code is 200\"] = responseCode.code === 200;\n\ntests[\"Body matches string root\"] = responseBody.has(\"root\");",
				"currentHelper": "normal",
				"helperAttributes": {},
				"time": 1480491599960,
				"name": "Reversessh",
				"description": "",
				"collectionId": "7ab6a5ee-a850-edee-07e5-e8bd6085bac7",
				"responses": []
			},
			{
				"id": "7eacfeab-9da6-e4be-bf35-70f5017774e6",
				"headers": "Content-Type: application/json\n",
				"url": "https://www.klario.in/admin/appliance/monitor/log",
				"preRequestScript": null,
				"pathVariables": {},
				"method": "POST",
				"data": "{}",
				"dataMode": "raw",
				"tests": "tests[\"Status code is 200\"] = responseCode.code === 200;\n\ntests[\"Response time is less than 200ms\"] = responseTime < 200;\n\ntests[\"Body matches 815eekak82gy\"] = responseBody.has(\"815eekak82gy\");",
				"currentHelper": "normal",
				"helperAttributes": {},
				"time": 1479812543112,
				"name": "MonitorLog",
				"description": "",
				"collectionId": "7ab6a5ee-a850-edee-07e5-e8bd6085bac7",
				"responses": []
			},
			{
				"id": "83a2c2b7-ad79-faf3-1d56-c87d9e1fc941",
				"headers": "Content-Type: application/json\n",
				"url": "https://www.klario.in/admin/appliance/registered/list",
				"preRequestScript": null,
				"pathVariables": {},
				"method": "POST",
				"data": "{\"serialId\": \"@#%$@\"}",
				"dataMode": "raw",
				"tests": "tests[\"Status code is 200\"] = responseCode.code === 200;\n\ntests[\"Response time is less than 200ms\"] = responseTime < 200;\n\ntests[\"Body matches []\"] = responseBody.has(\"[]\");\n",
				"currentHelper": "normal",
				"helperAttributes": {},
				"time": 1479813243431,
				"name": "RegisteredListNegative",
				"description": "",
				"collectionId": "7ab6a5ee-a850-edee-07e5-e8bd6085bac7",
				"responses": []
			},
			{
				"id": "986ecb25-a3de-69cb-9895-02682cdcb2e9",
				"headers": "Content-Type: application/json\n",
				"url": "https://www.klario.in/admin/appliance/owners/remove",
				"preRequestScript": null,
				"pathVariables": {},
				"method": "POST",
				"data": "{\n  \"deviceId\": \"123\"\n}",
				"dataMode": "raw",
				"tests": "tests[\"Status code is 400\"] = responseCode.code === 400;\n\ntests[\"Response time is less than 200ms\"] = responseTime < 200;\n\ntests[\"Body matches InCorrectAction\"] = responseBody.has(\"InCorrectAction\");",
				"currentHelper": "normal",
				"helperAttributes": {},
				"time": 1479812893468,
				"name": "OwnersRemoveNegative",
				"description": "",
				"collectionId": "7ab6a5ee-a850-edee-07e5-e8bd6085bac7",
				"responses": []
			},
			{
				"id": "9f1f345a-2c31-7ae7-5a8a-f1982bb181f3",
				"headers": "Content-Type: application/json\n",
				"url": "https://www.klario.in/admin/appliance/monitor/log",
				"preRequestScript": null,
				"pathVariables": {},
				"method": "POST",
				"data": "{\n\t\"deviceId\": \"54364\"\n\t\n}",
				"dataMode": "raw",
				"tests": "tests[\"Status code is 200\"] = responseCode.code === 200;\n\ntests[\"Response time is less than 200ms\"] = responseTime < 200;\n\ntests[\"Body matches []\"] = responseBody.has(\"[]\");",
				"currentHelper": "normal",
				"helperAttributes": {},
				"time": 1479812644207,
				"name": "MonitorLogNegative",
				"description": "",
				"collectionId": "7ab6a5ee-a850-edee-07e5-e8bd6085bac7",
				"responses": []
			},
			{
				"id": "ad3b6ba3-9052-c55b-e629-b5c08e0dcfa0",
				"headers": "Content-Type: application/json\n",
				"url": "https://www.klario.in/admin/appliance/registered/list",
				"preRequestScript": null,
				"pathVariables": {},
				"method": "POST",
				"data": "{}",
				"dataMode": "raw",
				"tests": "tests[\"Status code is 200\"] = responseCode.code === 200;\n\ntests[\"Response time is less than 200ms\"] = responseTime < 200;\n\ntests[\"Body matches 816nrvrzeagy\"] = responseBody.has(\"816nrvrzeagy\");\n\ntests[\"Body matches true\"] = responseBody.has(\"true\");\n\ntests[\"Body matches false\"] = responseBody.has(\"false\");",
				"currentHelper": "normal",
				"helperAttributes": {},
				"time": 1479813113601,
				"name": "RegisteredList",
				"description": "",
				"collectionId": "7ab6a5ee-a850-edee-07e5-e8bd6085bac7",
				"responses": []
			},
			{
				"id": "b2c35986-8cf8-059f-851f-9df6daeaee3a",
				"headers": "Content-Type: application/json\n",
				"url": "https://www.klario.in/admin/device/name/update",
				"preRequestScript": null,
				"pathVariables": {},
				"method": "POST",
				"data": "{\n  \"deviceName\": \"samp7\",\n  \"deviceKey\": \"doYAcGbYDLoUoEXQxciWaBiE2Y2jGNp1bb0fZ8zf8ts=\"\n}",
				"dataMode": "raw",
				"tests": "tests[\"Response time is less than 200ms\"] = responseTime < 200;\n\ntests[\"Status code is 200\"] = responseCode.code === 200;\n\ntests[\"Body matches string samp7\"] = responseBody.has(\"samp7\");",
				"currentHelper": "normal",
				"helperAttributes": {},
				"time": 1480494295059,
				"name": "NameUpdate",
				"description": "",
				"collectionId": "7ab6a5ee-a850-edee-07e5-e8bd6085bac7",
				"responses": []
			},
			{
				"id": "b7979f46-434e-35d4-230e-76cbd366e11c",
				"headers": "Content-Type: application/json\n",
				"url": "https://www.klario.in/admin/device/manufacture/register",
				"preRequestScript": null,
				"pathVariables": {},
				"method": "POST",
				"data": "{\n  \"deviceName\": \"\",\n  \"macAddress\": \"\",\n  \"nfcId\": \"\",\n  \"serialId\": \"\",\n  \"sdCardId\": \"\"\n}",
				"dataMode": "raw",
				"tests": "tests[\"Response time is less than 200ms\"] = responseTime < 200;\n\ntests[\"Status code is 409\"] = responseCode.code === 409;\n\ntests[\"Body matches Incorrect Request\"] = responseBody.has(\"Incorrect Request\");",
				"currentHelper": "normal",
				"helperAttributes": {},
				"time": 1479818791721,
				"name": "ManufactureRegisterNegative",
				"description": "",
				"collectionId": "7ab6a5ee-a850-edee-07e5-e8bd6085bac7",
				"responses": []
			},
			{
				"id": "cdc918bc-8376-9747-435f-8b380798e675",
				"headers": "Content-Type: application/json\n",
				"url": " https://www.klario.in/admin/appliance/transaction/list",
				"preRequestScript": null,
				"pathVariables": {},
				"method": "POST",
				"data": "{\n  \"deviceId\": \"916wln5yka8v\"\n}",
				"dataMode": "raw",
				"tests": "tests[\"Response time is less than 200ms\"] = responseTime < 200;\n\ntests[\"Status code is 200\"] = responseCode.code === 200;\n\ntests[\"Body matches []\"] = responseBody.has(\"[]\");",
				"currentHelper": "normal",
				"helperAttributes": {},
				"time": 1479818381520,
				"name": "TransactionList",
				"description": "",
				"collectionId": "7ab6a5ee-a850-edee-07e5-e8bd6085bac7",
				"responses": []
			},
			{
				"id": "e122a481-4aa5-831c-e895-24751e7adde2",
				"headers": "Content-Type: application/json\n",
				"url": "https://www.klario.in/admin/user/logout",
				"preRequestScript": null,
				"pathVariables": {},
				"method": "POST",
				"data": "{\n  \"userId\": \"\",\n  \"loginVerificationToken\": \"\"\n}",
				"dataMode": "raw",
				"tests": "tests[\"Response time is less than 200ms\"] = responseTime < 200;\n\ntests[\"Status code is 409\"] = responseCode.code === 409;\n\ntests[\"Body matches Incorrect Request\"] = responseBody.has(\"Incorrect Request\");",
				"currentHelper": "normal",
				"helperAttributes": {},
				"time": 1479819217653,
				"name": "AdminUserLogoutNegative",
				"description": "",
				"collectionId": "7ab6a5ee-a850-edee-07e5-e8bd6085bac7",
				"responses": []
			},
			{
				"id": "eb768b7a-c3db-7137-c92c-ee36b21910dc",
				"headers": "Content-Type: application/json\n",
				"url": "https://www.klario.in/admin/device/name/update",
				"preRequestScript": null,
				"pathVariables": {},
				"method": "POST",
				"data": "{\n  \"deviceName\": \"\",\n  \"deviceKey\": \"\"\n}",
				"dataMode": "raw",
				"tests": "tests[\"Response time is less than 200ms\"] = responseTime < 200;\n\ntests[\"Status code is 409\"] = responseCode.code === 409;\n\ntests[\"Body matches string Incorrect Request\"] = responseBody.has(\"Incorrect Request\");",
				"currentHelper": "normal",
				"helperAttributes": {},
				"time": 1480494369007,
				"name": "NameUpdateNegative",
				"description": "",
				"collectionId": "7ab6a5ee-a850-edee-07e5-e8bd6085bac7",
				"responses": []
			},
			{
				"id": "f6dad9de-4791-061f-eebf-534b99db9381",
				"headers": "Content-Type: application/json\n",
				"url": "https://www.klario.in/admin/user/login",
				"preRequestScript": null,
				"pathVariables": {},
				"method": "POST",
				"data": "{\n  \"userName\": \"\",\n  \"password\": \"\"\n}",
				"dataMode": "raw",
				"tests": "tests[\"Response time is less than 200ms\"] = responseTime < 200;\n\ntests[\"Status code is 409\"] = responseCode.code === 409;\n\ntests[\"Body matches Incorrect Request\"] = responseBody.has(\"Incorrect Request\");",
				"currentHelper": "normal",
				"helperAttributes": {},
				"time": 1479818988880,
				"name": "AdminUserLoginNegative",
				"description": "",
				"collectionId": "7ab6a5ee-a850-edee-07e5-e8bd6085bac7",
				"responses": []
			}
		],
		"timestamp": 1479812379158,
		"synced": false,
		"syncedFilename": "",
		"remote_id": 0,
		"remoteLink": "",
		"remoteLinkUpdatedAt": null,
		"public": false,
		"owner": "116258",
		"subscribed": false,
		"createdAt": 1479812379158,
		"updatedAt": 1480494369018,
		"write": true,
		"isDeleted": false,
		"published": false,
		"favorite": false,
		"permissions": {},
		"syncedPermissions": {},
		"sharedWithTeam": false
	},
	"folder": null,
	"environment": null,
	"globals": [],
	"results": [
		{
			"id": "1812d95d-03ea-cabc-ff20-051c63a0488c",
			"name": "AdminUserLogin",
			"url": "https://www.klario.in/admin/user/login",
			"totalTime": 0,
			"responseCode": {
				"code": 200,
				"name": "OK",
				"detail": "Standard response for successful HTTP requests. The actual response will depend on the request method used. In a GET request, the response will contain an entity corresponding to the requested resource. In a POST request the response will contain an entity describing or containing the result of the action."
			},
			"tests": {
				"Response time is less than 300ms": true,
				"Status code is 200": true,
				"Body matches Login Successful": true
			},
			"testPassFailCounts": {
				"Response time is less than 300ms": {
					"pass": 1,
					"fail": 0
				},
				"Status code is 200": {
					"pass": 1,
					"fail": 0
				},
				"Body matches Login Successful": {
					"pass": 1,
					"fail": 0
				}
			},
			"times": [
				70
			],
			"allTests": [
				{
					"Response time is less than 300ms": true,
					"Status code is 200": true,
					"Body matches Login Successful": true
				}
			],
			"time": 70,
			"totalRequestTime": 70,
			"iterationResults": {}
		},
		{
			"id": "f6dad9de-4791-061f-eebf-534b99db9381",
			"name": "AdminUserLoginNegative",
			"url": "https://www.klario.in/admin/user/login",
			"totalTime": 0,
			"responseCode": {
				"code": 409,
				"name": "Conflict",
				"detail": "Indicates that the request could not be processed because of conflict in the request, such as an edit conflict."
			},
			"tests": {
				"Response time is less than 200ms": true,
				"Status code is 409": true,
				"Body matches Incorrect Request": true
			},
			"testPassFailCounts": {
				"Response time is less than 200ms": {
					"pass": 1,
					"fail": 0
				},
				"Status code is 409": {
					"pass": 1,
					"fail": 0
				},
				"Body matches Incorrect Request": {
					"pass": 1,
					"fail": 0
				}
			},
			"times": [
				59
			],
			"allTests": [
				{
					"Response time is less than 200ms": true,
					"Status code is 409": true,
					"Body matches Incorrect Request": true
				}
			],
			"time": 59,
			"totalRequestTime": 59,
			"iterationResults": {}
		},
		{
			"id": "0d05e794-6fa3-78d1-33e7-aeba6da32b5d",
			"name": "AdminUserLogout",
			"url": "https://www.klario.in/admin/user/logout",
			"totalTime": 0,
			"responseCode": {
				"code": 200,
				"name": "OK",
				"detail": "Standard response for successful HTTP requests. The actual response will depend on the request method used. In a GET request, the response will contain an entity corresponding to the requested resource. In a POST request the response will contain an entity describing or containing the result of the action."
			},
			"tests": {
				"Response time is less than 200ms": true,
				"Status code is 200": true,
				"Body matches Logout Successful": true
			},
			"testPassFailCounts": {
				"Response time is less than 200ms": {
					"pass": 1,
					"fail": 0
				},
				"Status code is 200": {
					"pass": 1,
					"fail": 0
				},
				"Body matches Logout Successful": {
					"pass": 1,
					"fail": 0
				}
			},
			"times": [
				66
			],
			"allTests": [
				{
					"Response time is less than 200ms": true,
					"Status code is 200": true,
					"Body matches Logout Successful": true
				}
			],
			"time": 66,
			"totalRequestTime": 66,
			"iterationResults": {}
		},
		{
			"id": "e122a481-4aa5-831c-e895-24751e7adde2",
			"name": "AdminUserLogoutNegative",
			"url": "https://www.klario.in/admin/user/logout",
			"totalTime": 0,
			"responseCode": {
				"code": 409,
				"name": "Conflict",
				"detail": "Indicates that the request could not be processed because of conflict in the request, such as an edit conflict."
			},
			"tests": {
				"Response time is less than 200ms": true,
				"Status code is 409": true,
				"Body matches Incorrect Request": true
			},
			"testPassFailCounts": {
				"Response time is less than 200ms": {
					"pass": 1,
					"fail": 0
				},
				"Status code is 409": {
					"pass": 1,
					"fail": 0
				},
				"Body matches Incorrect Request": {
					"pass": 1,
					"fail": 0
				}
			},
			"times": [
				58
			],
			"allTests": [
				{
					"Response time is less than 200ms": true,
					"Status code is 409": true,
					"Body matches Incorrect Request": true
				}
			],
			"time": 58,
			"totalRequestTime": 58,
			"iterationResults": {}
		},
		{
			"id": "712d85ab-099a-4e3b-48f2-8c25664de98b",
			"name": "ApplianceRemove",
			"url": "https://www.klario.in/admin/appliance/remove",
			"totalTime": 0,
			"responseCode": {
				"code": 200,
				"name": "OK",
				"detail": "Standard response for successful HTTP requests. The actual response will depend on the request method used. In a GET request, the response will contain an entity corresponding to the requested resource. In a POST request the response will contain an entity describing or containing the result of the action."
			},
			"tests": {
				"Status code is 200": true,
				"Response time is less than 200ms": true,
				"Body matches Device removal complete": true
			},
			"testPassFailCounts": {
				"Status code is 200": {
					"pass": 1,
					"fail": 0
				},
				"Response time is less than 200ms": {
					"pass": 1,
					"fail": 0
				},
				"Body matches Device removal complete": {
					"pass": 1,
					"fail": 0
				}
			},
			"times": [
				72
			],
			"allTests": [
				{
					"Status code is 200": true,
					"Response time is less than 200ms": true,
					"Body matches Device removal complete": true
				}
			],
			"time": 72,
			"totalRequestTime": 72,
			"iterationResults": {}
		},
		{
			"id": "4bcee710-387f-bf4d-07ce-52ecda8556d9",
			"name": "ApplianceRemoveNegative",
			"url": "https://www.klario.in/admin/appliance/remove",
			"totalTime": 0,
			"responseCode": {
				"code": 200,
				"name": "OK",
				"detail": "Standard response for successful HTTP requests. The actual response will depend on the request method used. In a GET request, the response will contain an entity corresponding to the requested resource. In a POST request the response will contain an entity describing or containing the result of the action."
			},
			"tests": {
				"Status code is 200": true,
				"Response time is less than 200ms": true,
				"Body matches Device removal complete": true
			},
			"testPassFailCounts": {
				"Status code is 200": {
					"pass": 1,
					"fail": 0
				},
				"Response time is less than 200ms": {
					"pass": 1,
					"fail": 0
				},
				"Body matches Device removal complete": {
					"pass": 1,
					"fail": 0
				}
			},
			"times": [
				74
			],
			"allTests": [
				{
					"Status code is 200": true,
					"Response time is less than 200ms": true,
					"Body matches Device removal complete": true
				}
			],
			"time": 74,
			"totalRequestTime": 74,
			"iterationResults": {}
		},
		{
			"id": "73733c33-f69e-8c85-c187-f34fcc060d2c",
			"name": "ManufactureRegister",
			"url": "https://www.klario.in/admin/device/manufacture/register",
			"totalTime": 0,
			"responseCode": {
				"code": 200,
				"name": "OK",
				"detail": "Standard response for successful HTTP requests. The actual response will depend on the request method used. In a GET request, the response will contain an entity corresponding to the requested resource. In a POST request the response will contain an entity describing or containing the result of the action."
			},
			"tests": {
				"Response time is less than 200ms": true,
				"Status code is 200": true,
				"Body matches Appliance registered successfully": true
			},
			"testPassFailCounts": {
				"Response time is less than 200ms": {
					"pass": 1,
					"fail": 0
				},
				"Status code is 200": {
					"pass": 1,
					"fail": 0
				},
				"Body matches Appliance registered successfully": {
					"pass": 1,
					"fail": 0
				}
			},
			"times": [
				85
			],
			"allTests": [
				{
					"Response time is less than 200ms": true,
					"Status code is 200": true,
					"Body matches Appliance registered successfully": true
				}
			],
			"time": 85,
			"totalRequestTime": 85,
			"iterationResults": {}
		},
		{
			"id": "b7979f46-434e-35d4-230e-76cbd366e11c",
			"name": "ManufactureRegisterNegative",
			"url": "https://www.klario.in/admin/device/manufacture/register",
			"totalTime": 0,
			"responseCode": {
				"code": 409,
				"name": "Conflict",
				"detail": "Indicates that the request could not be processed because of conflict in the request, such as an edit conflict."
			},
			"tests": {
				"Response time is less than 200ms": true,
				"Status code is 409": true,
				"Body matches Incorrect Request": true
			},
			"testPassFailCounts": {
				"Response time is less than 200ms": {
					"pass": 1,
					"fail": 0
				},
				"Status code is 409": {
					"pass": 1,
					"fail": 0
				},
				"Body matches Incorrect Request": {
					"pass": 1,
					"fail": 0
				}
			},
			"times": [
				64
			],
			"allTests": [
				{
					"Response time is less than 200ms": true,
					"Status code is 409": true,
					"Body matches Incorrect Request": true
				}
			],
			"time": 64,
			"totalRequestTime": 64,
			"iterationResults": {}
		},
		{
			"id": "7eacfeab-9da6-e4be-bf35-70f5017774e6",
			"name": "MonitorLog",
			"url": "https://www.klario.in/admin/appliance/monitor/log",
			"totalTime": 0,
			"responseCode": {
				"code": 200,
				"name": "OK",
				"detail": "Standard response for successful HTTP requests. The actual response will depend on the request method used. In a GET request, the response will contain an entity corresponding to the requested resource. In a POST request the response will contain an entity describing or containing the result of the action."
			},
			"tests": {
				"Status code is 200": true,
				"Response time is less than 200ms": true,
				"Body matches 815eekak82gy": true
			},
			"testPassFailCounts": {
				"Status code is 200": {
					"pass": 1,
					"fail": 0
				},
				"Response time is less than 200ms": {
					"pass": 1,
					"fail": 0
				},
				"Body matches 815eekak82gy": {
					"pass": 1,
					"fail": 0
				}
			},
			"times": [
				60
			],
			"allTests": [
				{
					"Status code is 200": true,
					"Response time is less than 200ms": true,
					"Body matches 815eekak82gy": true
				}
			],
			"time": 60,
			"totalRequestTime": 60,
			"iterationResults": {}
		},
		{
			"id": "9f1f345a-2c31-7ae7-5a8a-f1982bb181f3",
			"name": "MonitorLogNegative",
			"url": "https://www.klario.in/admin/appliance/monitor/log",
			"totalTime": 0,
			"responseCode": {
				"code": 200,
				"name": "OK",
				"detail": "Standard response for successful HTTP requests. The actual response will depend on the request method used. In a GET request, the response will contain an entity corresponding to the requested resource. In a POST request the response will contain an entity describing or containing the result of the action."
			},
			"tests": {
				"Status code is 200": true,
				"Response time is less than 200ms": true,
				"Body matches []": true
			},
			"testPassFailCounts": {
				"Status code is 200": {
					"pass": 1,
					"fail": 0
				},
				"Response time is less than 200ms": {
					"pass": 1,
					"fail": 0
				},
				"Body matches []": {
					"pass": 1,
					"fail": 0
				}
			},
			"times": [
				58
			],
			"allTests": [
				{
					"Status code is 200": true,
					"Response time is less than 200ms": true,
					"Body matches []": true
				}
			],
			"time": 58,
			"totalRequestTime": 58,
			"iterationResults": {}
		},
		{
			"id": "b2c35986-8cf8-059f-851f-9df6daeaee3a",
			"name": "NameUpdate",
			"url": "https://www.klario.in/admin/device/name/update",
			"totalTime": 0,
			"responseCode": {
				"code": 200,
				"name": "OK",
				"detail": "Standard response for successful HTTP requests. The actual response will depend on the request method used. In a GET request, the response will contain an entity corresponding to the requested resource. In a POST request the response will contain an entity describing or containing the result of the action."
			},
			"tests": {
				"Response time is less than 200ms": true,
				"Status code is 200": true,
				"Body matches string samp7": true
			},
			"testPassFailCounts": {
				"Response time is less than 200ms": {
					"pass": 1,
					"fail": 0
				},
				"Status code is 200": {
					"pass": 1,
					"fail": 0
				},
				"Body matches string samp7": {
					"pass": 1,
					"fail": 0
				}
			},
			"times": [
				68
			],
			"allTests": [
				{
					"Response time is less than 200ms": true,
					"Status code is 200": true,
					"Body matches string samp7": true
				}
			],
			"time": 68,
			"totalRequestTime": 68,
			"iterationResults": {}
		},
		{
			"id": "eb768b7a-c3db-7137-c92c-ee36b21910dc",
			"name": "NameUpdateNegative",
			"url": "https://www.klario.in/admin/device/name/update",
			"totalTime": 0,
			"responseCode": {
				"code": 409,
				"name": "Conflict",
				"detail": "Indicates that the request could not be processed because of conflict in the request, such as an edit conflict."
			},
			"tests": {
				"Response time is less than 200ms": true,
				"Status code is 409": true,
				"Body matches string Incorrect Request": true
			},
			"testPassFailCounts": {
				"Response time is less than 200ms": {
					"pass": 1,
					"fail": 0
				},
				"Status code is 409": {
					"pass": 1,
					"fail": 0
				},
				"Body matches string Incorrect Request": {
					"pass": 1,
					"fail": 0
				}
			},
			"times": [
				55
			],
			"allTests": [
				{
					"Response time is less than 200ms": true,
					"Status code is 409": true,
					"Body matches string Incorrect Request": true
				}
			],
			"time": 55,
			"totalRequestTime": 55,
			"iterationResults": {}
		},
		{
			"id": "4d84c927-77c7-0d1c-2e5c-f5fba1ba67b7",
			"name": "OwnersRemove",
			"url": "https://www.klario.in/admin/appliance/owners/remove",
			"totalTime": 0,
			"responseCode": {
				"code": 400,
				"name": "Bad Request",
				"detail": "The request cannot be fulfilled due to bad syntax."
			},
			"tests": {
				"Status code is 400": true,
				"Response time is less than 200ms": true,
				"Body matches InCorrectAction": true
			},
			"testPassFailCounts": {
				"Status code is 400": {
					"pass": 1,
					"fail": 0
				},
				"Response time is less than 200ms": {
					"pass": 1,
					"fail": 0
				},
				"Body matches InCorrectAction": {
					"pass": 1,
					"fail": 0
				}
			},
			"times": [
				59
			],
			"allTests": [
				{
					"Status code is 400": true,
					"Response time is less than 200ms": true,
					"Body matches InCorrectAction": true
				}
			],
			"time": 59,
			"totalRequestTime": 59,
			"iterationResults": {}
		},
		{
			"id": "986ecb25-a3de-69cb-9895-02682cdcb2e9",
			"name": "OwnersRemoveNegative",
			"url": "https://www.klario.in/admin/appliance/owners/remove",
			"totalTime": 0,
			"responseCode": {
				"code": 400,
				"name": "Bad Request",
				"detail": "The request cannot be fulfilled due to bad syntax."
			},
			"tests": {
				"Status code is 400": true,
				"Response time is less than 200ms": true,
				"Body matches InCorrectAction": true
			},
			"testPassFailCounts": {
				"Status code is 400": {
					"pass": 1,
					"fail": 0
				},
				"Response time is less than 200ms": {
					"pass": 1,
					"fail": 0
				},
				"Body matches InCorrectAction": {
					"pass": 1,
					"fail": 0
				}
			},
			"times": [
				60
			],
			"allTests": [
				{
					"Status code is 400": true,
					"Response time is less than 200ms": true,
					"Body matches InCorrectAction": true
				}
			],
			"time": 60,
			"totalRequestTime": 60,
			"iterationResults": {}
		},
		{
			"id": "ad3b6ba3-9052-c55b-e629-b5c08e0dcfa0",
			"name": "RegisteredList",
			"url": "https://www.klario.in/admin/appliance/registered/list",
			"totalTime": 0,
			"responseCode": {
				"code": 200,
				"name": "OK",
				"detail": "Standard response for successful HTTP requests. The actual response will depend on the request method used. In a GET request, the response will contain an entity corresponding to the requested resource. In a POST request the response will contain an entity describing or containing the result of the action."
			},
			"tests": {
				"Status code is 200": true,
				"Response time is less than 200ms": true,
				"Body matches 816nrvrzeagy": true,
				"Body matches true": true,
				"Body matches false": true
			},
			"testPassFailCounts": {
				"Status code is 200": {
					"pass": 1,
					"fail": 0
				},
				"Response time is less than 200ms": {
					"pass": 1,
					"fail": 0
				},
				"Body matches 816nrvrzeagy": {
					"pass": 1,
					"fail": 0
				},
				"Body matches true": {
					"pass": 1,
					"fail": 0
				},
				"Body matches false": {
					"pass": 1,
					"fail": 0
				}
			},
			"times": [
				75
			],
			"allTests": [
				{
					"Status code is 200": true,
					"Response time is less than 200ms": true,
					"Body matches 816nrvrzeagy": true,
					"Body matches true": true,
					"Body matches false": true
				}
			],
			"time": 75,
			"totalRequestTime": 75,
			"iterationResults": {}
		},
		{
			"id": "83a2c2b7-ad79-faf3-1d56-c87d9e1fc941",
			"name": "RegisteredListNegative",
			"url": "https://www.klario.in/admin/appliance/registered/list",
			"totalTime": 0,
			"responseCode": {
				"code": 200,
				"name": "OK",
				"detail": "Standard response for successful HTTP requests. The actual response will depend on the request method used. In a GET request, the response will contain an entity corresponding to the requested resource. In a POST request the response will contain an entity describing or containing the result of the action."
			},
			"tests": {
				"Status code is 200": true,
				"Response time is less than 200ms": true,
				"Body matches []": true
			},
			"testPassFailCounts": {
				"Status code is 200": {
					"pass": 1,
					"fail": 0
				},
				"Response time is less than 200ms": {
					"pass": 1,
					"fail": 0
				},
				"Body matches []": {
					"pass": 1,
					"fail": 0
				}
			},
			"times": [
				58
			],
			"allTests": [
				{
					"Status code is 200": true,
					"Response time is less than 200ms": true,
					"Body matches []": true
				}
			],
			"time": 58,
			"totalRequestTime": 58,
			"iterationResults": {}
		},
		{
			"id": "74529afd-27cf-f942-1fcf-af0f97685302",
			"name": "Reversessh",
			"url": "https://www.klario.in/admin/appliance/reversessh/default",
			"totalTime": 0,
			"responseCode": {
				"code": 200,
				"name": "OK",
				"detail": "Standard response for successful HTTP requests. The actual response will depend on the request method used. In a GET request, the response will contain an entity corresponding to the requested resource. In a POST request the response will contain an entity describing or containing the result of the action."
			},
			"tests": {
				"Status code is 200": true,
				"Body matches string root": true
			},
			"testPassFailCounts": {
				"Status code is 200": {
					"pass": 1,
					"fail": 0
				},
				"Body matches string root": {
					"pass": 1,
					"fail": 0
				}
			},
			"times": [
				59
			],
			"allTests": [
				{
					"Status code is 200": true,
					"Body matches string root": true
				}
			],
			"time": 59,
			"totalRequestTime": 59,
			"iterationResults": {}
		},
		{
			"id": "cdc918bc-8376-9747-435f-8b380798e675",
			"name": "TransactionList",
			"url": " https://www.klario.in/admin/appliance/transaction/list",
			"totalTime": 0,
			"responseCode": {
				"code": 200,
				"name": "OK",
				"detail": "Standard response for successful HTTP requests. The actual response will depend on the request method used. In a GET request, the response will contain an entity corresponding to the requested resource. In a POST request the response will contain an entity describing or containing the result of the action."
			},
			"tests": {
				"Response time is less than 200ms": true,
				"Status code is 200": true,
				"Body matches []": true
			},
			"testPassFailCounts": {
				"Response time is less than 200ms": {
					"pass": 1,
					"fail": 0
				},
				"Status code is 200": {
					"pass": 1,
					"fail": 0
				},
				"Body matches []": {
					"pass": 1,
					"fail": 0
				}
			},
			"times": [
				65
			],
			"allTests": [
				{
					"Response time is less than 200ms": true,
					"Status code is 200": true,
					"Body matches []": true
				}
			],
			"time": 65,
			"totalRequestTime": 65,
			"iterationResults": {}
		},
		{
			"id": "31b0a91c-35e7-a7f1-eee9-132b2fde6cd2",
			"name": "TransactionListNegative",
			"url": " https://www.klario.in/admin/appliance/transaction/list",
			"totalTime": 0,
			"responseCode": {
				"code": 200,
				"name": "OK",
				"detail": "Standard response for successful HTTP requests. The actual response will depend on the request method used. In a GET request, the response will contain an entity corresponding to the requested resource. In a POST request the response will contain an entity describing or containing the result of the action."
			},
			"tests": {
				"Response time is less than 200ms": true,
				"Status code is 200": true,
				"Body matches []": true
			},
			"testPassFailCounts": {
				"Response time is less than 200ms": {
					"pass": 1,
					"fail": 0
				},
				"Status code is 200": {
					"pass": 1,
					"fail": 0
				},
				"Body matches []": {
					"pass": 1,
					"fail": 0
				}
			},
			"times": [
				64
			],
			"allTests": [
				{
					"Response time is less than 200ms": true,
					"Status code is 200": true,
					"Body matches []": true
				}
			],
			"time": 64,
			"totalRequestTime": 64,
			"iterationResults": {}
		}
	],
	"totalPass": 58,
	"totalFail": 0,
	"totalTime": 1229,
	"lifecycle": "done",
	"willStop": false,
	"requests": [
		{
			"name": "AdminUserLogin",
			"id": "1812d95d-03ea-cabc-ff20-051c63a0488c",
			"url": "https://www.klario.in/admin/user/login",
			"time": 70,
			"responseCode": {
				"code": 200,
				"name": "OK",
				"detail": "Standard response for successful HTTP requests. The actual response will depend on the request method used. In a GET request, the response will contain an entity corresponding to the requested resource. In a POST request the response will contain an entity describing or containing the result of the action."
			},
			"testPassFailCounts": {
				"Response time is less than 300ms": {
					"pass": 1,
					"fail": 0
				},
				"Status code is 200": {
					"pass": 1,
					"fail": 0
				},
				"Body matches Login Successful": {
					"pass": 1,
					"fail": 0
				}
			},
			"gridTitles": [
				"Response time is less than 300ms",
				"Status code is 200",
				"Body matches Login Successful"
			],
			"gridData": [
				[
					true,
					true,
					true
				]
			],
			"tests": {
				"Response time is less than 300ms": true,
				"Status code is 200": true,
				"Body matches Login Successful": true
			}
		},
		{
			"name": "AdminUserLoginNegative",
			"id": "f6dad9de-4791-061f-eebf-534b99db9381",
			"url": "https://www.klario.in/admin/user/login",
			"time": 59,
			"responseCode": {
				"code": 409,
				"name": "Conflict",
				"detail": "Indicates that the request could not be processed because of conflict in the request, such as an edit conflict."
			},
			"testPassFailCounts": {
				"Response time is less than 200ms": {
					"pass": 1,
					"fail": 0
				},
				"Status code is 409": {
					"pass": 1,
					"fail": 0
				},
				"Body matches Incorrect Request": {
					"pass": 1,
					"fail": 0
				}
			},
			"gridTitles": [
				"Response time is less than 200ms",
				"Status code is 409",
				"Body matches Incorrect Request"
			],
			"gridData": [
				[
					true,
					true,
					true
				]
			],
			"tests": {
				"Response time is less than 200ms": true,
				"Status code is 409": true,
				"Body matches Incorrect Request": true
			}
		},
		{
			"name": "AdminUserLogout",
			"id": "0d05e794-6fa3-78d1-33e7-aeba6da32b5d",
			"url": "https://www.klario.in/admin/user/logout",
			"time": 66,
			"responseCode": {
				"code": 200,
				"name": "OK",
				"detail": "Standard response for successful HTTP requests. The actual response will depend on the request method used. In a GET request, the response will contain an entity corresponding to the requested resource. In a POST request the response will contain an entity describing or containing the result of the action."
			},
			"testPassFailCounts": {
				"Response time is less than 200ms": {
					"pass": 1,
					"fail": 0
				},
				"Status code is 200": {
					"pass": 1,
					"fail": 0
				},
				"Body matches Logout Successful": {
					"pass": 1,
					"fail": 0
				}
			},
			"gridTitles": [
				"Response time is less than 200ms",
				"Status code is 200",
				"Body matches Logout Successful"
			],
			"gridData": [
				[
					true,
					true,
					true
				]
			],
			"tests": {
				"Response time is less than 200ms": true,
				"Status code is 200": true,
				"Body matches Logout Successful": true
			}
		},
		{
			"name": "AdminUserLogoutNegative",
			"id": "e122a481-4aa5-831c-e895-24751e7adde2",
			"url": "https://www.klario.in/admin/user/logout",
			"time": 58,
			"responseCode": {
				"code": 409,
				"name": "Conflict",
				"detail": "Indicates that the request could not be processed because of conflict in the request, such as an edit conflict."
			},
			"testPassFailCounts": {
				"Response time is less than 200ms": {
					"pass": 1,
					"fail": 0
				},
				"Status code is 409": {
					"pass": 1,
					"fail": 0
				},
				"Body matches Incorrect Request": {
					"pass": 1,
					"fail": 0
				}
			},
			"gridTitles": [
				"Response time is less than 200ms",
				"Status code is 409",
				"Body matches Incorrect Request"
			],
			"gridData": [
				[
					true,
					true,
					true
				]
			],
			"tests": {
				"Response time is less than 200ms": true,
				"Status code is 409": true,
				"Body matches Incorrect Request": true
			}
		},
		{
			"name": "ApplianceRemove",
			"id": "712d85ab-099a-4e3b-48f2-8c25664de98b",
			"url": "https://www.klario.in/admin/appliance/remove",
			"time": 72,
			"responseCode": {
				"code": 200,
				"name": "OK",
				"detail": "Standard response for successful HTTP requests. The actual response will depend on the request method used. In a GET request, the response will contain an entity corresponding to the requested resource. In a POST request the response will contain an entity describing or containing the result of the action."
			},
			"testPassFailCounts": {
				"Status code is 200": {
					"pass": 1,
					"fail": 0
				},
				"Response time is less than 200ms": {
					"pass": 1,
					"fail": 0
				},
				"Body matches Device removal complete": {
					"pass": 1,
					"fail": 0
				}
			},
			"gridTitles": [
				"Status code is 200",
				"Response time is less than 200ms",
				"Body matches Device removal complete"
			],
			"gridData": [
				[
					true,
					true,
					true
				]
			],
			"tests": {
				"Status code is 200": true,
				"Response time is less than 200ms": true,
				"Body matches Device removal complete": true
			}
		},
		{
			"name": "ApplianceRemoveNegative",
			"id": "4bcee710-387f-bf4d-07ce-52ecda8556d9",
			"url": "https://www.klario.in/admin/appliance/remove",
			"time": 74,
			"responseCode": {
				"code": 200,
				"name": "OK",
				"detail": "Standard response for successful HTTP requests. The actual response will depend on the request method used. In a GET request, the response will contain an entity corresponding to the requested resource. In a POST request the response will contain an entity describing or containing the result of the action."
			},
			"testPassFailCounts": {
				"Status code is 200": {
					"pass": 1,
					"fail": 0
				},
				"Response time is less than 200ms": {
					"pass": 1,
					"fail": 0
				},
				"Body matches Device removal complete": {
					"pass": 1,
					"fail": 0
				}
			},
			"gridTitles": [
				"Status code is 200",
				"Response time is less than 200ms",
				"Body matches Device removal complete"
			],
			"gridData": [
				[
					true,
					true,
					true
				]
			],
			"tests": {
				"Status code is 200": true,
				"Response time is less than 200ms": true,
				"Body matches Device removal complete": true
			}
		},
		{
			"name": "ManufactureRegister",
			"id": "73733c33-f69e-8c85-c187-f34fcc060d2c",
			"url": "https://www.klario.in/admin/device/manufacture/register",
			"time": 85,
			"responseCode": {
				"code": 200,
				"name": "OK",
				"detail": "Standard response for successful HTTP requests. The actual response will depend on the request method used. In a GET request, the response will contain an entity corresponding to the requested resource. In a POST request the response will contain an entity describing or containing the result of the action."
			},
			"testPassFailCounts": {
				"Response time is less than 200ms": {
					"pass": 1,
					"fail": 0
				},
				"Status code is 200": {
					"pass": 1,
					"fail": 0
				},
				"Body matches Appliance registered successfully": {
					"pass": 1,
					"fail": 0
				}
			},
			"gridTitles": [
				"Response time is less than 200ms",
				"Status code is 200",
				"Body matches Appliance registered successfully"
			],
			"gridData": [
				[
					true,
					true,
					true
				]
			],
			"tests": {
				"Response time is less than 200ms": true,
				"Status code is 200": true,
				"Body matches Appliance registered successfully": true
			}
		},
		{
			"name": "ManufactureRegisterNegative",
			"id": "b7979f46-434e-35d4-230e-76cbd366e11c",
			"url": "https://www.klario.in/admin/device/manufacture/register",
			"time": 64,
			"responseCode": {
				"code": 409,
				"name": "Conflict",
				"detail": "Indicates that the request could not be processed because of conflict in the request, such as an edit conflict."
			},
			"testPassFailCounts": {
				"Response time is less than 200ms": {
					"pass": 1,
					"fail": 0
				},
				"Status code is 409": {
					"pass": 1,
					"fail": 0
				},
				"Body matches Incorrect Request": {
					"pass": 1,
					"fail": 0
				}
			},
			"gridTitles": [
				"Response time is less than 200ms",
				"Status code is 409",
				"Body matches Incorrect Request"
			],
			"gridData": [
				[
					true,
					true,
					true
				]
			],
			"tests": {
				"Response time is less than 200ms": true,
				"Status code is 409": true,
				"Body matches Incorrect Request": true
			}
		},
		{
			"name": "MonitorLog",
			"id": "7eacfeab-9da6-e4be-bf35-70f5017774e6",
			"url": "https://www.klario.in/admin/appliance/monitor/log",
			"time": 60,
			"responseCode": {
				"code": 200,
				"name": "OK",
				"detail": "Standard response for successful HTTP requests. The actual response will depend on the request method used. In a GET request, the response will contain an entity corresponding to the requested resource. In a POST request the response will contain an entity describing or containing the result of the action."
			},
			"testPassFailCounts": {
				"Status code is 200": {
					"pass": 1,
					"fail": 0
				},
				"Response time is less than 200ms": {
					"pass": 1,
					"fail": 0
				},
				"Body matches 815eekak82gy": {
					"pass": 1,
					"fail": 0
				}
			},
			"gridTitles": [
				"Status code is 200",
				"Response time is less than 200ms",
				"Body matches 815eekak82gy"
			],
			"gridData": [
				[
					true,
					true,
					true
				]
			],
			"tests": {
				"Status code is 200": true,
				"Response time is less than 200ms": true,
				"Body matches 815eekak82gy": true
			}
		},
		{
			"name": "MonitorLogNegative",
			"id": "9f1f345a-2c31-7ae7-5a8a-f1982bb181f3",
			"url": "https://www.klario.in/admin/appliance/monitor/log",
			"time": 58,
			"responseCode": {
				"code": 200,
				"name": "OK",
				"detail": "Standard response for successful HTTP requests. The actual response will depend on the request method used. In a GET request, the response will contain an entity corresponding to the requested resource. In a POST request the response will contain an entity describing or containing the result of the action."
			},
			"testPassFailCounts": {
				"Status code is 200": {
					"pass": 1,
					"fail": 0
				},
				"Response time is less than 200ms": {
					"pass": 1,
					"fail": 0
				},
				"Body matches []": {
					"pass": 1,
					"fail": 0
				}
			},
			"gridTitles": [
				"Status code is 200",
				"Response time is less than 200ms",
				"Body matches []"
			],
			"gridData": [
				[
					true,
					true,
					true
				]
			],
			"tests": {
				"Status code is 200": true,
				"Response time is less than 200ms": true,
				"Body matches []": true
			}
		},
		{
			"name": "NameUpdate",
			"id": "b2c35986-8cf8-059f-851f-9df6daeaee3a",
			"url": "https://www.klario.in/admin/device/name/update",
			"time": 68,
			"responseCode": {
				"code": 200,
				"name": "OK",
				"detail": "Standard response for successful HTTP requests. The actual response will depend on the request method used. In a GET request, the response will contain an entity corresponding to the requested resource. In a POST request the response will contain an entity describing or containing the result of the action."
			},
			"testPassFailCounts": {
				"Response time is less than 200ms": {
					"pass": 1,
					"fail": 0
				},
				"Status code is 200": {
					"pass": 1,
					"fail": 0
				},
				"Body matches string samp7": {
					"pass": 1,
					"fail": 0
				}
			},
			"gridTitles": [
				"Response time is less than 200ms",
				"Status code is 200",
				"Body matches string samp7"
			],
			"gridData": [
				[
					true,
					true,
					true
				]
			],
			"tests": {
				"Response time is less than 200ms": true,
				"Status code is 200": true,
				"Body matches string samp7": true
			}
		},
		{
			"name": "NameUpdateNegative",
			"id": "eb768b7a-c3db-7137-c92c-ee36b21910dc",
			"url": "https://www.klario.in/admin/device/name/update",
			"time": 55,
			"responseCode": {
				"code": 409,
				"name": "Conflict",
				"detail": "Indicates that the request could not be processed because of conflict in the request, such as an edit conflict."
			},
			"testPassFailCounts": {
				"Response time is less than 200ms": {
					"pass": 1,
					"fail": 0
				},
				"Status code is 409": {
					"pass": 1,
					"fail": 0
				},
				"Body matches string Incorrect Request": {
					"pass": 1,
					"fail": 0
				}
			},
			"gridTitles": [
				"Response time is less than 200ms",
				"Status code is 409",
				"Body matches string Incorrect Request"
			],
			"gridData": [
				[
					true,
					true,
					true
				]
			],
			"tests": {
				"Response time is less than 200ms": true,
				"Status code is 409": true,
				"Body matches string Incorrect Request": true
			}
		},
		{
			"name": "OwnersRemove",
			"id": "4d84c927-77c7-0d1c-2e5c-f5fba1ba67b7",
			"url": "https://www.klario.in/admin/appliance/owners/remove",
			"time": 59,
			"responseCode": {
				"code": 400,
				"name": "Bad Request",
				"detail": "The request cannot be fulfilled due to bad syntax."
			},
			"testPassFailCounts": {
				"Status code is 400": {
					"pass": 1,
					"fail": 0
				},
				"Response time is less than 200ms": {
					"pass": 1,
					"fail": 0
				},
				"Body matches InCorrectAction": {
					"pass": 1,
					"fail": 0
				}
			},
			"gridTitles": [
				"Status code is 400",
				"Response time is less than 200ms",
				"Body matches InCorrectAction"
			],
			"gridData": [
				[
					true,
					true,
					true
				]
			],
			"tests": {
				"Status code is 400": true,
				"Response time is less than 200ms": true,
				"Body matches InCorrectAction": true
			}
		},
		{
			"name": "OwnersRemoveNegative",
			"id": "986ecb25-a3de-69cb-9895-02682cdcb2e9",
			"url": "https://www.klario.in/admin/appliance/owners/remove",
			"time": 60,
			"responseCode": {
				"code": 400,
				"name": "Bad Request",
				"detail": "The request cannot be fulfilled due to bad syntax."
			},
			"testPassFailCounts": {
				"Status code is 400": {
					"pass": 1,
					"fail": 0
				},
				"Response time is less than 200ms": {
					"pass": 1,
					"fail": 0
				},
				"Body matches InCorrectAction": {
					"pass": 1,
					"fail": 0
				}
			},
			"gridTitles": [
				"Status code is 400",
				"Response time is less than 200ms",
				"Body matches InCorrectAction"
			],
			"gridData": [
				[
					true,
					true,
					true
				]
			],
			"tests": {
				"Status code is 400": true,
				"Response time is less than 200ms": true,
				"Body matches InCorrectAction": true
			}
		},
		{
			"name": "RegisteredList",
			"id": "ad3b6ba3-9052-c55b-e629-b5c08e0dcfa0",
			"url": "https://www.klario.in/admin/appliance/registered/list",
			"time": 75,
			"responseCode": {
				"code": 200,
				"name": "OK",
				"detail": "Standard response for successful HTTP requests. The actual response will depend on the request method used. In a GET request, the response will contain an entity corresponding to the requested resource. In a POST request the response will contain an entity describing or containing the result of the action."
			},
			"testPassFailCounts": {
				"Status code is 200": {
					"pass": 1,
					"fail": 0
				},
				"Response time is less than 200ms": {
					"pass": 1,
					"fail": 0
				},
				"Body matches 816nrvrzeagy": {
					"pass": 1,
					"fail": 0
				},
				"Body matches true": {
					"pass": 1,
					"fail": 0
				},
				"Body matches false": {
					"pass": 1,
					"fail": 0
				}
			},
			"gridTitles": [
				"Status code is 200",
				"Response time is less than 200ms",
				"Body matches 816nrvrzeagy",
				"Body matches true",
				"Body matches false"
			],
			"gridData": [
				[
					true,
					true,
					true,
					true,
					true
				]
			],
			"tests": {
				"Status code is 200": true,
				"Response time is less than 200ms": true,
				"Body matches 816nrvrzeagy": true,
				"Body matches true": true,
				"Body matches false": true
			}
		},
		{
			"name": "RegisteredListNegative",
			"id": "83a2c2b7-ad79-faf3-1d56-c87d9e1fc941",
			"url": "https://www.klario.in/admin/appliance/registered/list",
			"time": 58,
			"responseCode": {
				"code": 200,
				"name": "OK",
				"detail": "Standard response for successful HTTP requests. The actual response will depend on the request method used. In a GET request, the response will contain an entity corresponding to the requested resource. In a POST request the response will contain an entity describing or containing the result of the action."
			},
			"testPassFailCounts": {
				"Status code is 200": {
					"pass": 1,
					"fail": 0
				},
				"Response time is less than 200ms": {
					"pass": 1,
					"fail": 0
				},
				"Body matches []": {
					"pass": 1,
					"fail": 0
				}
			},
			"gridTitles": [
				"Status code is 200",
				"Response time is less than 200ms",
				"Body matches []"
			],
			"gridData": [
				[
					true,
					true,
					true
				]
			],
			"tests": {
				"Status code is 200": true,
				"Response time is less than 200ms": true,
				"Body matches []": true
			}
		},
		{
			"name": "Reversessh",
			"id": "74529afd-27cf-f942-1fcf-af0f97685302",
			"url": "https://www.klario.in/admin/appliance/reversessh/default",
			"time": 59,
			"responseCode": {
				"code": 200,
				"name": "OK",
				"detail": "Standard response for successful HTTP requests. The actual response will depend on the request method used. In a GET request, the response will contain an entity corresponding to the requested resource. In a POST request the response will contain an entity describing or containing the result of the action."
			},
			"testPassFailCounts": {
				"Status code is 200": {
					"pass": 1,
					"fail": 0
				},
				"Body matches string root": {
					"pass": 1,
					"fail": 0
				}
			},
			"gridTitles": [
				"Status code is 200",
				"Body matches string root"
			],
			"gridData": [
				[
					true,
					true
				]
			],
			"tests": {
				"Status code is 200": true,
				"Body matches string root": true
			}
		},
		{
			"name": "TransactionList",
			"id": "cdc918bc-8376-9747-435f-8b380798e675",
			"url": " https://www.klario.in/admin/appliance/transaction/list",
			"time": 65,
			"responseCode": {
				"code": 200,
				"name": "OK",
				"detail": "Standard response for successful HTTP requests. The actual response will depend on the request method used. In a GET request, the response will contain an entity corresponding to the requested resource. In a POST request the response will contain an entity describing or containing the result of the action."
			},
			"testPassFailCounts": {
				"Response time is less than 200ms": {
					"pass": 1,
					"fail": 0
				},
				"Status code is 200": {
					"pass": 1,
					"fail": 0
				},
				"Body matches []": {
					"pass": 1,
					"fail": 0
				}
			},
			"gridTitles": [
				"Response time is less than 200ms",
				"Status code is 200",
				"Body matches []"
			],
			"gridData": [
				[
					true,
					true,
					true
				]
			],
			"tests": {
				"Response time is less than 200ms": true,
				"Status code is 200": true,
				"Body matches []": true
			}
		},
		{
			"name": "TransactionListNegative",
			"id": "31b0a91c-35e7-a7f1-eee9-132b2fde6cd2",
			"url": " https://www.klario.in/admin/appliance/transaction/list",
			"time": 64,
			"responseCode": {
				"code": 200,
				"name": "OK",
				"detail": "Standard response for successful HTTP requests. The actual response will depend on the request method used. In a GET request, the response will contain an entity corresponding to the requested resource. In a POST request the response will contain an entity describing or containing the result of the action."
			},
			"testPassFailCounts": {
				"Response time is less than 200ms": {
					"pass": 1,
					"fail": 0
				},
				"Status code is 200": {
					"pass": 1,
					"fail": 0
				},
				"Body matches []": {
					"pass": 1,
					"fail": 0
				}
			},
			"gridTitles": [
				"Response time is less than 200ms",
				"Status code is 200",
				"Body matches []"
			],
			"gridData": [
				[
					true,
					true,
					true
				]
			],
			"tests": {
				"Response time is less than 200ms": true,
				"Status code is 200": true,
				"Body matches []": true
			}
		}
	],
	"synced": false
}